overworld
  ........D.........F.......F.
 .!..F.DDDD...FFF..$...........
DDDDDDDD......B............DD%DD
.......DDDDDDDDD....F..DDDDD....
  ...S.........DDDDDDDDD.....FF
   .......FB....!...........BB.

